Final Proejct: Modeling File
…
Fit Classification Model with tune_grid() and grid_regular()

classification_grid <- class_tree_wkf |>
  tune_grid(resamples = data_5_fold,
            grid = grid_regular(tree_depth(), cost_complexity(), levels = 10),
            metrics = metric_set(mn_log_loss)) # Model metric

Collecting the metrics computed across the folds for each tuning parameter

classification_grid |>
  collect_metrics() |> # collecting defining model metrics
  filter(.metric == "mn_log_loss") # filter by defining model metrics

# A tibble: 100 × 8
   cost_complexity tree_depth .metric     .estimator  mean     n std_err .config
             <dbl>      <int> <chr>       <chr>      <dbl> <int>   <dbl> <chr>  
 1    0.0000000001          1 mn_log_loss binary     0.404     5 0.00121 Prepro…
 2    0.0000000001          2 mn_log_loss binary     0.404     5 0.00121 Prepro…
 3    0.0000000001          4 mn_log_loss binary     0.358     5 0.00129 Prepro…
 4    0.0000000001          5 mn_log_loss binary     0.358     5 0.00129 Prepro…
 5    0.0000000001          7 mn_log_loss binary     0.353     5 0.00184 Prepro…
 6    0.0000000001          8 mn_log_loss binary     0.353     5 0.00132 Prepro…
 7    0.0000000001         10 mn_log_loss binary     0.350     5 0.00200 Prepro…
 8    0.0000000001         11 mn_log_loss binary     0.351     5 0.00188 Prepro…
 9    0.0000000001         13 mn_log_loss binary     0.353     5 0.00207 Prepro…
10    0.0000000001         15 mn_log_loss binary     0.356     5 0.00205 Prepro…
# ℹ 90 more rows
…
